…
``` r
install.packages("tidyverse")
library(tidyverse)
```

First steps
-----------

We need data to create plots! As for start, let's use ggplot2 built in dataset **mpg** with fuel economy data from 1999 and 2008 for 38 models of car:

``` r
mpg # aka ggplot::mpg
```

    ## # A tibble: 234 x 11
    ##    manufacturer model    displ  year   cyl trans   drv     cty   hwy fl   
    ##    <chr>        <chr>    <dbl> <int> <int> <chr>   <chr> <int> <int> <chr>
    ##  1 audi         a4        1.80  1999     4 auto(l… f        18    29 p    
    ##  2 audi         a4        1.80  1999     4 manual… f        21    29 p    
    ##  3 audi         a4        2.00  2008     4 manual… f        20    31 p    
    ##  4 audi         a4        2.00  2008     4 auto(a… f        21    30 p    
    ##  5 audi         a4        2.80  1999     6 auto(l… f        16    26 p    
    ##  6 audi         a4        2.80  1999     6 manual… f        18    26 p    
    ##  7 audi         a4        3.10  2008     6 auto(a… f        18    27 p    
    ##  8 audi         a4 quat…  1.80  1999     4 manual… 4        18    26 p    
    ##  9 audi         a4 quat…  1.80  1999     4 auto(l… 4        16    25 p    
    ## 10 audi         a4 quat…  2.00  2008     4 manual… 4        20    28 p    
    ## # ... with 224 more rows, and 1 more variable: class <chr>
…
1.  How many rows are in mtcars dataset? How many columns?

``` r
mpg
```

    ## # A tibble: 234 x 11
    ##    manufacturer model    displ  year   cyl trans   drv     cty   hwy fl   
    ##    <chr>        <chr>    <dbl> <int> <int> <chr>   <chr> <int> <int> <chr>
    ##  1 audi         a4        1.80  1999     4 auto(l… f        18    29 p    
    ##  2 audi         a4        1.80  1999     4 manual… f        21    29 p    
    ##  3 audi         a4        2.00  2008     4 manual… f        20    31 p    
    ##  4 audi         a4        2.00  2008     4 auto(a… f        21    30 p    
    ##  5 audi         a4        2.80  1999     6 auto(l… f        16    26 p    
    ##  6 audi         a4        2.80  1999     6 manual… f        18    26 p    
    ##  7 audi         a4        3.10  2008     6 auto(a… f        18    27 p    
    ##  8 audi         a4 quat…  1.80  1999     4 manual… 4        18    26 p    
    ##  9 audi         a4 quat…  1.80  1999     4 auto(l… 4        16    25 p    
    ## 10 audi         a4 quat…  2.00  2008     4 manual… 4        20    28 p    
    ## # ... with 224 more rows, and 1 more variable: class <chr>
…
1.  Which variables in mpg are categorical? Which variables are continuous? (type ?mpg to read the documentation for the dataset). How can you see when you run mpg?

``` r
mpg
```

    ## # A tibble: 234 x 11
    ##    manufacturer model    displ  year   cyl trans   drv     cty   hwy fl   
    ##    <chr>        <chr>    <dbl> <int> <int> <chr>   <chr> <int> <int> <chr>
    ##  1 audi         a4        1.80  1999     4 auto(l… f        18    29 p    
    ##  2 audi         a4        1.80  1999     4 manual… f        21    29 p    
    ##  3 audi         a4        2.00  2008     4 manual… f        20    31 p    
    ##  4 audi         a4        2.00  2008     4 auto(a… f        21    30 p    
    ##  5 audi         a4        2.80  1999     6 auto(l… f        16    26 p    
    ##  6 audi         a4        2.80  1999     6 manual… f        18    26 p    
    ##  7 audi         a4        3.10  2008     6 auto(a… f        18    27 p    
    ##  8 audi         a4 quat…  1.80  1999     4 manual… 4        18    26 p    
    ##  9 audi         a4 quat…  1.80  1999     4 auto(l… 4        16    25 p    
    ## 10 audi         a4 quat…  2.00  2008     4 manual… 4        20    28 p    
    ## # ... with 224 more rows, and 1 more variable: class <chr>
…
