…
## Data to visualise

We need data to create plots\! As for start, let’s use **ggplot2** built
in dataset *mpg* with fuel economy data from 1999 and 2008 for 38 models
of car:

``` r
mpg # aka ggplot::mpg
```

    ## # A tibble: 234 x 11
    ##    manufacturer model displ  year   cyl trans drv     cty   hwy fl    class
    ##    <chr>        <chr> <dbl> <int> <int> <chr> <chr> <int> <int> <chr> <chr>
    ##  1 audi         a4      1.8  1999     4 auto… f        18    29 p     comp…
    ##  2 audi         a4      1.8  1999     4 manu… f        21    29 p     comp…
    ##  3 audi         a4      2    2008     4 manu… f        20    31 p     comp…
    ##  4 audi         a4      2    2008     4 auto… f        21    30 p     comp…
    ##  5 audi         a4      2.8  1999     6 auto… f        16    26 p     comp…
    ##  6 audi         a4      2.8  1999     6 manu… f        18    26 p     comp…
    ##  7 audi         a4      3.1  2008     6 auto… f        18    27 p     comp…
    ##  8 audi         a4 q…   1.8  1999     4 manu… 4        18    26 p     comp…
    ##  9 audi         a4 q…   1.8  1999     4 auto… 4        16    25 p     comp…
    ## 10 audi         a4 q…   2    2008     4 manu… 4        20    28 p     comp…
    ## # … with 224 more rows
…
2.  How many rows are in mpg dataset? How many columns? Run “mpg”

<!-- end list -->

``` r
mpg
```

    ## # A tibble: 234 x 11
    ##    manufacturer model displ  year   cyl trans drv     cty   hwy fl    class
    ##    <chr>        <chr> <dbl> <int> <int> <chr> <chr> <int> <int> <chr> <chr>
    ##  1 audi         a4      1.8  1999     4 auto… f        18    29 p     comp…
    ##  2 audi         a4      1.8  1999     4 manu… f        21    29 p     comp…
    ##  3 audi         a4      2    2008     4 manu… f        20    31 p     comp…
    ##  4 audi         a4      2    2008     4 auto… f        21    30 p     comp…
    ##  5 audi         a4      2.8  1999     6 auto… f        16    26 p     comp…
    ##  6 audi         a4      2.8  1999     6 manu… f        18    26 p     comp…
    ##  7 audi         a4      3.1  2008     6 auto… f        18    27 p     comp…
    ##  8 audi         a4 q…   1.8  1999     4 manu… 4        18    26 p     comp…
    ##  9 audi         a4 q…   1.8  1999     4 auto… 4        16    25 p     comp…
    ## 10 audi         a4 q…   2    2008     4 manu… 4        20    28 p     comp…
    ## # … with 224 more rows
…
Is everything OK with shapes?

3.  Using **dplyr** built-in **starwars** dataset (hint: starwars) make
    height~mass scatterplot and map one continuous variable to size:

First print out starwars dataset:

``` r
starwars
```

    ## # A tibble: 87 x 13
    ##    name  height  mass hair_color skin_color eye_color birth_year gender
    ##    <chr>  <int> <dbl> <chr>      <chr>      <chr>          <dbl> <chr> 
    ##  1 Luke…    172    77 blond      fair       blue            19   male  
    ##  2 C-3PO    167    75 <NA>       gold       yellow         112   <NA>  
    ##  3 R2-D2     96    32 <NA>       white, bl… red             33   <NA>  
    ##  4 Dart…    202   136 none       white      yellow          41.9 male  
    ##  5 Leia…    150    49 brown      light      brown           19   female
    ##  6 Owen…    178   120 brown, gr… light      blue            52   male  
    ##  7 Beru…    165    75 brown      light      blue            47   female
    ##  8 R5-D4     97    32 <NA>       white, red red             NA   <NA>  
    ##  9 Bigg…    183    84 black      light      brown           24   male  
    ## 10 Obi-…    182    77 auburn, w… fair       blue-gray       57   male  
    ## # … with 77 more rows, and 5 more variables: homeworld <chr>,
    ## #   species <chr>, films <list>, vehicles <list>, starships <list>
…
