Data visualisation using ggplot2
…
## Start every analysis by visualization

- Data visualization is natural starting point of every data analysis workflow

- Let's have look at the **datasaurus** dataset
    - here we have x and y variables for 13 variables (away, bullseye, etc.) 

```r
library(datasauRus)
datasaurus_dozen_wide
```

```
## # A tibble: 142 x 26
##    away_x away_y bullseye_x bullseye_y circle_x circle_y dino_x dino_y
##     <dbl>  <dbl>      <dbl>      <dbl>    <dbl>    <dbl>  <dbl>  <dbl>
##  1   32.3   61.4       51.2       83.3     56.0     79.3   55.4   97.2
##  2   53.4   26.2       59.0       85.5     50.0     79.0   51.5   96.0
##  3   63.9   30.8       51.9       85.8     51.3     82.4   46.2   94.5
##  4   70.3   82.5       48.2       85.0     51.2     79.2   42.8   91.4
##  5   34.1   45.7       41.7       84.0     44.4     78.2   40.8   88.3
##  6   67.7   37.1       37.9       82.6     45.0     77.9   38.7   84.9
##  7   53.3   97.5       39.5       80.8     48.6     78.8   35.6   79.9
##  8   63.5   25.1       39.6       82.7     42.1     76.9   33.1   77.6
##  9   68.0   81.0       34.8       80.0     41.0     76.4   29.0   74.5
## 10   67.4   29.7       27.6       72.8     34.6     72.7   26.2   71.4
## # ... with 132 more rows, and 18 more variables: dots_x <dbl>,
## #   dots_y <dbl>, h_lines_x <dbl>, h_lines_y <dbl>, high_lines_x <dbl>,
## #   high_lines_y <dbl>, slant_down_x <dbl>, slant_down_y <dbl>,
## #   slant_up_x <dbl>, slant_up_y <dbl>, star_x <dbl>, star_y <dbl>,
## #   v_lines_x <dbl>, v_lines_y <dbl>, wide_lines_x <dbl>,
## #   wide_lines_y <dbl>, x_shape_x <dbl>, x_shape_y <dbl>
```
…
